-992
-16 -8 952
-16 8 -8 936
-992
-16 -8 952
-16 8 -8 936
-8 -48 -96 -72 -88 -56 -80 -104 -8 -88 -96 160
24 -16 -72 -80 -120 -88 -56 480
-56 -88 -112 -16 -88 -80 504
-24 -56 -8 -24 -56 8 -40 720
-72 912
-8 88 -40 -104 -64 8 -16 -32 568
-32 -104 -40 -64 -56 -8 -64 -40 -120 392
-112 -16 96 -40 -32 -16 48 -112 -80 -96 -16 240
-16 -72 -104 -72 -8 -40 -16 24 -80 -56 424
-96 48 -72 32 -88 -8 -72 -40 -80 -56 -112 -120 -40 24
-8 -88 -24 16 -112 -32 -104 -24 -96 416
32 -32 -8 -80 -104 696
-88 -96 -120 -8 -24 -24 584
-104 -8 -96 40 -64 640
-24 -8 136 -96 -32 -64 -48 -120 -16 104 -32 -24 192
-32 -80 -16 -16 -48 8 -96 -8 -112 -112 384
-32 -16 112 -16 -48 -104 -32 -96 -120 344
-80 -72 -72 -104 -64 -32 -40 -120 -72 -40 -48 -48 -24 72
-8 64 -80 -88 -104 -48 -88 -104 72 -16 240
